<svg width="28" height="28" viewBox="0 0 28 28" fill="none" xmlns="http://www.w3.org/2000/svg">
<path d="M4.5 4.5L23.463 23.463" stroke="#FEE600" stroke-linecap="round" stroke-linejoin="round"/>
<path d="M23.4631 4.5L4.5001 23.463" stroke="#FEE600" stroke-linecap="round" stroke-linejoin="round"/>
</svg>
